{
    "data": [
        {
            "id": 99,
            "name": "Apple iPhone 6s",
            "main": {
                "img": "https://images.versus.io/objects/apple-iphone-6s.front.variety.1576684641045.jpg",
                "general_year": 2015,
                "display_size__inch": 4.7,
                "cpu_type": "Apple A9",
                "cpu_number_of_cores": 2,
                "storage_capacity__gb": 64,
                "manufacturer": "Apple",
                "country": "Китай",
                "wireless_charging" : false,
                "NFC": true,
                "update_frequency": 60,
                "esim": false,
            }
        },
        {
            "id": 129,
            "name": "Apple iPhone 13",
            "main": {
                "img": "https://images.versus.io/objects/apple-iphone-13.front.variety.1631694414000.jpg",
                "general_year": 2021,
                "display_size__inch": 6.1,
                "cpu_type": "A15 Bionic chip",
                "cpu_number_of_cores": 6,
                "storage_capacity__gb": 128,
                "manufacturer": "Apple",
                "country": "Китай",
                "wireless_charging" : true,
                "NFC": true,
                "update_frequency": 60,
                "esim": true,
            }
            }
        },
        {
            "id": 5,
            "name": "Apple iPhone 12",
            "main": {
                "img": "https://images.versus.io/objects/apple-iphone-12.front.variety.1603823796608.jpg",
                "general_year": 2020,
                "cpu_type": "A14 Bionic Chip",
                "cpu_number_of_cores": 6,
                "display_size__inch": 6.1,
                "storage_capacity__gb": 64,
                "manufacturer": "Apple",
                "country": "Китай",
                "wireless_charging" : true,
                "NFC": true,
                "update_frequency": 60,
                "esim": true,
            }
        },
        {
            "id": 231,
            "name": "Apple iPhone 12 Mini",
            "main": {
                "img": "https://images.versus.io/objects/apple-iphone-12-mini.front.variety.1602615252701.jpg",
                "general_year": 2020,
                "cpu_type": "A14 Bionic Chip",
                "cpu_number_of_cores": 6,
                "display_size__inch": 5.4,
                "storage_capacity__gb": 64,
                "manufacturer": "Apple",
                "country": "Китай",
                "wireless_charging" : true,
                "NFC": true,
                "update_frequency": 60,
                "esim": true,
            }
        },
        {
            "id": 116,
            "name": "Apple iPhone 14",
            "main": {
                "img": "https://images.versus.io/objects/apple-iphone-14.front.variety.1662576114127.jpg",
                "general_year": 2022,
                "cpu_type": "A15 Bionic chip",
                "cpu_number_of_cores": 6,
                "display_size__inch": 6.1,
                "storage_capacity__gb": 512,
                "manufacturer": "Apple",
                "country": "Китай",
                "wireless_charging" : true,
                "NFC": true,
                "update_frequency": 60,
                "esim": true,
            }
        },
        {
            "id": 71,
            "name": "Google Pixel 6",
            "main": {
                "img": "https://images.versus.io/objects/google-pixel-6.front.variety.1634674732794.jpg",
                "general_year": 2021,
                "cpu_type": "2x 2.8 GHz ARM Cortex-X1",
                "cpu_number_of_cores": 8,
                "display_size__inch": 6.4,
                "storage_capacity__gb": 128,
                "manufacturer": "Google",
                "country": "Китай",
                "wireless_charging" : true,
                "NFC": true,
                "update_frequency": 90,
                "esim": true,
            }
        },
        {
            "id": 70,
            "name": "Fairphone 4",
            "main": {
                "img": "https://images.versus.io/objects/fairphone-4.front.variety.1633536633478.jpg",
                "general_year": 2021,
                "cpu_type": "Qualcomm Snapdragon 750G",
                "cpu_number_of_cores": 8,
                "display_size__inch": 6.3,
                "storage_capacity__gb": 128,
                "manufacturer": "Fairphone",
                "country": "Амстердам",
                "wireless_charging" : false,
                "NFC": true,
                "update_frequency": 60,
                "esim": true,
            }
        },
        {
            "id": 72,
            "name": "Apple iPhone 12 Pro",
            "main": {
                "img": "https://images.versus.io/objects/apple-iphone-12-pro.front.variety.1603823831678.jpg",
                "general_year": 2020,
                "cpu_type": "Apple",
                "cpu_number_of_cores": 6,
                "display_size__inch": 6.1,
                "storage_capacity__gb": 256,
                "manufacturer": "Apple",
                "country": "Китай",
                "wireless_charging" : true,
                "NFC": true,
                "update_frequency": 60,
                "esim": true,
            }
        },
        {
            "id": 19,
            "name": "Samsung Galaxy A52",
            "main": {
                "img": "https://images.versus.io/objects/samsung-galaxy-a52.front.variety.1615995095386.jpg",
                "general_year": 2021,
                "cpu_type": "Qualcomm Snapdragon",
                "cpu_number_of_cores": 8,
                "display_size__inch": 6.5,
                "storage_capacity__gb": 128,
                "manufacturer": "Samsung",
                "country": "Китай",
                "wireless_charging": false,
                "NFC": true,
                "update_frequency": 90,
                "esim": true,
            }
        },
        {
            "id": 471,
            "name": "Apple iPhone 13 Pro Max",
            "main": {
                "img": "https://images.versus.io/objects/apple-iphone-13.front.variety.1631694414000.jpg",
                "general_year": 2021,
                "cpu_type": "Apple",
                "cpu_number_of_cores": 6,
                "display_size__inch": 6.7,
                "storage_capacity__gb": 1024,
                "manufacturer": "Apple",
                "country": "Китай",
                "wireless_charging" : true,
                "NFC": true,
                "update_frequency": 60,
                "esim": true,
            }
        },
        {
            "id": 67,
            "name": "Samsung Galaxy A52S",
            "main": {
                "img": "https://images.versus.io/objects/samsung-galaxy-a52s-5g.front.variety.1630088917780.jpg",
                "general_year": 2021,
                "cpu_type": "Qualcomm Snapdragon",
                "cpu_number_of_cores": 8,
                "display_size__inch": 6.5,
                "storage_capacity__gb": 128,
                "manufacturer": "Samsung",
                "country": "Китай",
                "wireless_charging": false,
                "NFC": true,
                "update_frequency": 90,
                "esim": false,
            }
        },
        {
            "id": 1399,
            "name": "Samsung Galaxy Z Flip 4",
            "main": {
                "img": "https://images.versus.io/objects/samsung-galaxy-z-flip4.front.variety.1660141994661.jpg",
                "general_year": 2022,
                "cpu_type": "Qualcomm Snapdragon 8+ Gen1",
                "cpu_number_of_cores": 8,
                "display_size__inch": 6.7,
                "storage_capacity__gb": 128,
                "manufacturer": "Samsung",
                "country": "Китай",
                "wireless_charging": true,
                "NFC": true,
                "update_frequency": 90,
                "esim": true
            }
        },
        {
            "id": 13,
            "name": "Samsung Galaxy A32",
            "main": {
                "img": "https://images.versus.io/objects/samsung-galaxy-a32.front.variety.1614359065779.jpg",
                "general_year": 2021,
                "cpu_type": "Helio G80",
                "cpu_number_of_cores": 8,
                "display_size__inch": 6.5,
                "storage_capacity__gb": 128,
                "manufacturer": "Samsung",
                "country": "Китай",
                "wireless_charging": false,
                "NFC": true,
                "update_frequency": 90,
                "esim": false,
            }
        },
        {
            "id": 282,
            "name": "Apple iPhone 13 Pro Max",
            "main": {
                "img": "https://images.versus.io/objects/apple-iphone-13.front.variety.1631694414000.jpg",
                "general_year": 2021,
                "cpu_type": "A15 Bionic chip",
                "cpu_number_of_cores": 6,
                "display_size__inch": 6.7,
                "storage_capacity__gb": 512,
                "manufacturer": "Apple",
                "country": "Китай",
                "wireless_charging" : true,
                "NFC": true,
                "update_frequency": 60,
                "esim": true,
            }
        },
        {
            "id": 2578,
            "name": "Xiaomi Poco X5",
            "main": {
                "img": "https://versus.com/ru/xiaomi-poco-x5",
                "general_year": 2023,
                "cpu_type": "Qualcomm Snapdragon 778G",
                "cpu_number_of_cores": 8,
                "display_size__inch": 6.67,
                "storage_capacity__gb": 128,
                "manufacturer": "",
                "country": "Китай",
                "wireless_charging" : true,
                "NFC": true,
                "update_frequency": 60,
                "esim": true,
            }
        },
        {
            "id": 1084,
            "name": "Apple iPhone 7 Plus",
            "main": {
                "img": "https://images.versus.io/objects/apple-iphone-7-plus.front.variety.1576684641045.jpg",
                "general_year": 2016,
                "cpu_type": "A10 Fusion",
                "cpu_number_of_cores": 4,
                "display_size__inch": 5.5,
                "storage_capacity__gb": 256,
                "manufacturer": "Apple",
                "country": "Китай",
                "wireless_charging" : false,
                "NFC": true,
                "update_frequency": 60,
                "esim": false,
            }
        },
    ],
    "meta": {
        "pagination": {
            "page": 1,
            "pageSize": 25,
            "pageCount": 104,
            "total": 2591
        }
    }
}